// Jest Snapshot v1, https://goo.gl/fbAQLP

exports[`shows a message when there are no students found 1`] = `"<div>There are no students enrolled at the moment.</div>"`;

exports[`shows students when there are some 1`] = `"<table width=\\"100%\\"><tbody><tr><td>Name</td><td>Age</td><td>Actions</td></tr><tr><td>My Name</td><td>12345</td><td><button type=\\"submit\\" class=\\"btn btn-primary\\">Delete</button></td></tr></tbody></table>"`;
